interactions:
- request:
    body: null
    headers:
      Accept:
      - '*/*'
      Accept-Encoding:
      - gzip, deflate
      Authorization:
      - API_TOKEN_47de5399-60c5-49e2-8f72-467375a46324
      Connection:
      - keep-alive
      Cookie:
      - AWSALB=/74uftJ8yFMXL6WWxqOhFPSs3ioyOWNDII9+TOjwf4UJzRPZwFe/A5T1yY/fcxTHOsps9aHgUTyhJtdTcaGnt3IBacIwgaSrZa3THfsw7Em6N7wvUOEyETmGOO/0;
        AWSALBCORS=/74uftJ8yFMXL6WWxqOhFPSs3ioyOWNDII9+TOjwf4UJzRPZwFe/A5T1yY/fcxTHOsps9aHgUTyhJtdTcaGnt3IBacIwgaSrZa3THfsw7Em6N7wvUOEyETmGOO/0
      User-Agent:
      - python-welkin/0.0.5
    method: GET
    uri: https://api.live.welkincloud.io/tenant_REDACTED/instance_REDACTED/patients/28fd23be-7530-4257-8adb-927e07af9d5d/document-summary?page=0
  response:
    body:
      string: '{"name": "_document_summary", "data": {"content": [{"id": "a7ca862d-44c9-494a-a2b9-9490c0305bbd",
        "patientId": "28fd23be-7530-4257-8adb-927e07af9d5d", "cdtId": "fc0ef04f-31da-4be2-b347-e5b1e4c8e3c6",
        "version": 138, "jsonBody": {"external_guid": null, "created_at": "2022-10-10T14:06:40.564Z",
        "source_type": null, "external_id": null, "type": "doc-type-others", "created_by_name":
        "API_CLIENT:VJUQLSRUUIMR", "created_by": "41860744-eeed-4cac-bb76-9f500030d55c",
        "updated_by_name": "API_CLIENT:VJUQLSRUUIMR", "updated_at": "2022-10-10T14:06:46.088Z",
        "updated_by": "41860744-eeed-4cac-bb76-9f500030d55c", "files": [{"id": "f371e071-dc66-418d-8b2b-2df1adb2d758",
        "size": 5840, "storageKey": "upliv/upliv-dev/patients/28fd23be-7530-4257-8adb-927e07af9d5d/documents/5e7f8faf-c554-4c67-b3d8-5d9aba53678a",
        "contentType": "image/jpeg", "originalName": "test-image.jpeg"}], "id": "a7ca862d-44c9-494a-a2b9-9490c0305bbd",
        "source_id": null, "source_name": null}, "cdtName": "_document_summary"},
        {"id": "e0a8ea43-6dfe-4dfe-b708-bcef77fa0a8f", "patientId": "28fd23be-7530-4257-8adb-927e07af9d5d",
        "cdtId": "fc0ef04f-31da-4be2-b347-e5b1e4c8e3c6", "version": 138, "jsonBody":
        {"external_guid": null, "created_at": "2022-10-10T14:06:12.233Z", "source_type":
        null, "external_id": null, "type": "doc-type-others", "created_by_name": "API_CLIENT:VJUQLSRUUIMR",
        "created_by": "41860744-eeed-4cac-bb76-9f500030d55c", "updated_by_name": "API_CLIENT:VJUQLSRUUIMR",
        "updated_at": "2022-10-10T14:06:12.233Z", "updated_by": "41860744-eeed-4cac-bb76-9f500030d55c",
        "files": null, "id": "e0a8ea43-6dfe-4dfe-b708-bcef77fa0a8f", "source_id":
        null, "source_name": null}, "cdtName": "_document_summary"}, {"id": "4f076244-3241-4134-af20-3c0450797fdd",
        "patientId": "28fd23be-7530-4257-8adb-927e07af9d5d", "cdtId": "fc0ef04f-31da-4be2-b347-e5b1e4c8e3c6",
        "version": 138, "jsonBody": {"external_guid": null, "created_at": "2022-10-10T14:04:36.656Z",
        "source_type": null, "external_id": null, "type": "doc-type-others", "created_by_name":
        "API_CLIENT:VJUQLSRUUIMR", "created_by": "41860744-eeed-4cac-bb76-9f500030d55c",
        "updated_by_name": "API_CLIENT:VJUQLSRUUIMR", "updated_at": "2022-10-10T14:05:46.573Z",
        "updated_by": "41860744-eeed-4cac-bb76-9f500030d55c", "files": [{"id": "a835380a-ec25-457b-b5be-86b212fbdd9b",
        "size": 5840, "storageKey": "upliv/upliv-dev/patients/28fd23be-7530-4257-8adb-927e07af9d5d/documents/9eee22de-22a5-48ec-b2dd-06a736f4eb2b",
        "contentType": "image/jpeg", "originalName": "test-image.jpeg"}], "id": "4f076244-3241-4134-af20-3c0450797fdd",
        "source_id": null, "source_name": null}, "cdtName": "_document_summary"},
        {"id": "63701cfa-16d4-43c8-a023-87991a7e1a2f", "patientId": "28fd23be-7530-4257-8adb-927e07af9d5d",
        "cdtId": "fc0ef04f-31da-4be2-b347-e5b1e4c8e3c6", "version": 138, "jsonBody":
        {"external_guid": null, "created_at": "2022-10-10T13:59:50.436Z", "source_type":
        null, "external_id": null, "type": "doc-type-others", "created_by_name": "API_CLIENT:VJUQLSRUUIMR",
        "created_by": "41860744-eeed-4cac-bb76-9f500030d55c", "updated_by_name": "API_CLIENT:VJUQLSRUUIMR",
        "updated_at": "2022-10-10T14:02:35.336Z", "updated_by": "41860744-eeed-4cac-bb76-9f500030d55c",
        "files": [{"id": "6d5178a5-63cd-411e-b37a-27561cdea066", "size": 108243, "storageKey":
        "upliv/upliv-dev/patients/28fd23be-7530-4257-8adb-927e07af9d5d/documents/0ad031cd-1e89-4d38-af26-a4acbd75d974",
        "contentType": "application/pdf", "originalName": "test-upload.pdf"}], "id":
        "63701cfa-16d4-43c8-a023-87991a7e1a2f", "source_id": null, "source_name":
        null}, "cdtName": "_document_summary"}, {"id": "78fefc2e-6d70-430e-8787-55741fc3d953",
        "patientId": "28fd23be-7530-4257-8adb-927e07af9d5d", "cdtId": "e5741b03-3905-4d65-bd37-98d1c2850c3f",
        "version": 132, "jsonBody": {"external_guid": null, "created_at": "2022-10-07T15:58:10.066Z",
        "source_type": null, "external_id": null, "type": "doc-type-others", "created_by_name":
        "API_CLIENT:VJUQLSRUUIMR", "created_by": "41860744-eeed-4cac-bb76-9f500030d55c",
        "updated_by_name": "API_CLIENT:VJUQLSRUUIMR", "updated_at": "2022-10-07T15:58:15.647Z",
        "updated_by": "41860744-eeed-4cac-bb76-9f500030d55c", "files": [{"id": "5098b065-41c9-42d8-ba26-904bf0e4aaac",
        "size": 108243, "storageKey": "upliv/upliv-dev/patients/28fd23be-7530-4257-8adb-927e07af9d5d/documents/178a31de-7c82-4897-a9e4-93588fcf2572",
        "contentType": null, "originalName": "ffcheatsheet_beginner_ZNH9Q8h.pdf"}],
        "id": "78fefc2e-6d70-430e-8787-55741fc3d953", "source_id": null, "source_name":
        null}, "cdtName": "_document_summary"}, {"id": "baa960fc-921b-4a6a-93aa-531e3a9141b6",
        "patientId": "28fd23be-7530-4257-8adb-927e07af9d5d", "cdtId": "11235121-5cdf-4706-a266-a5a92ac3c099",
        "version": 131, "jsonBody": {"external_guid": null, "created_at": "2022-10-06T18:27:35.877Z",
        "source_type": null, "external_id": null, "type": "doc-type-others", "created_by_name":
        "API_CLIENT:VJUQLSRUUIMR", "created_by": "41860744-eeed-4cac-bb76-9f500030d55c",
        "updated_by_name": "API_CLIENT:VJUQLSRUUIMR", "updated_at": "2022-10-06T18:28:21.901Z",
        "updated_by": "41860744-eeed-4cac-bb76-9f500030d55c", "files": [{"id": "9690f241-94f6-4564-865d-e347b06123e9",
        "size": 108243, "storageKey": "upliv/upliv-dev/patients/28fd23be-7530-4257-8adb-927e07af9d5d/documents/cbd23f37-3ec4-4166-836a-d06e97de8d97",
        "contentType": null, "originalName": "ffcheatsheet_beginner_ZNH9Q8h.pdf"}],
        "id": "baa960fc-921b-4a6a-93aa-531e3a9141b6", "source_id": null, "source_name":
        null}, "cdtName": "_document_summary"}, {"id": "2a4c46fd-3e0f-4c9f-89f0-aaa66579bb8c",
        "patientId": "28fd23be-7530-4257-8adb-927e07af9d5d", "cdtId": "11235121-5cdf-4706-a266-a5a92ac3c099",
        "version": 131, "jsonBody": {"external_guid": null, "created_at": "2022-10-06T18:20:17.475Z",
        "source_type": null, "external_id": null, "type": "doc-type-others", "created_by_name":
        "API_CLIENT:VJUQLSRUUIMR", "created_by": "41860744-eeed-4cac-bb76-9f500030d55c",
        "updated_by_name": "API_CLIENT:VJUQLSRUUIMR", "updated_at": "2022-10-06T18:20:17.767Z",
        "updated_by": "41860744-eeed-4cac-bb76-9f500030d55c", "files": [{"id": "0b6ec63f-2d11-4534-966f-e4de8bbf5e9a",
        "size": 5840, "storageKey": "upliv/upliv-dev/patients/28fd23be-7530-4257-8adb-927e07af9d5d/documents/43f8a555-90ba-4da3-b2d0-a9d3bfd6b29d",
        "contentType": null, "originalName": "walrus_uJGKbRm.jpeg"}], "id": "2a4c46fd-3e0f-4c9f-89f0-aaa66579bb8c",
        "source_id": null, "source_name": null}, "cdtName": "_document_summary"},
        {"id": "1d60bc06-50e9-45e7-9e90-5f9e30f8ead8", "patientId": "28fd23be-7530-4257-8adb-927e07af9d5d",
        "cdtId": "11235121-5cdf-4706-a266-a5a92ac3c099", "version": 131, "jsonBody":
        {"external_guid": null, "created_at": "2022-10-06T18:04:55.000Z", "source_type":
        null, "external_id": null, "type": "doc-type-others", "created_by_name": "API_CLIENT:VJUQLSRUUIMR",
        "created_by": "41860744-eeed-4cac-bb76-9f500030d55c", "updated_by_name": "API_CLIENT:VJUQLSRUUIMR",
        "updated_at": "2022-10-06T18:04:55.239Z", "updated_by": "41860744-eeed-4cac-bb76-9f500030d55c",
        "files": [{"id": "c41c5832-2dad-46bf-befd-8a888791fcf3", "size": 5840, "storageKey":
        "upliv/upliv-dev/patients/28fd23be-7530-4257-8adb-927e07af9d5d/documents/83731619-b711-4a04-b90e-e9e6b253ba2f",
        "contentType": null, "originalName": "walrus_uJGKbRm.jpeg"}], "id": "1d60bc06-50e9-45e7-9e90-5f9e30f8ead8",
        "source_id": null, "source_name": null}, "cdtName": "_document_summary"},
        {"id": "a8de3854-90b0-4167-9c9d-d051cfccfd8d", "patientId": "28fd23be-7530-4257-8adb-927e07af9d5d",
        "cdtId": "11235121-5cdf-4706-a266-a5a92ac3c099", "version": 131, "jsonBody":
        {"external_guid": null, "created_at": "2022-10-06T18:03:19.098Z", "source_type":
        null, "external_id": null, "type": "doc-type-others", "created_by_name": "API_CLIENT:VJUQLSRUUIMR",
        "created_by": "41860744-eeed-4cac-bb76-9f500030d55c", "updated_by_name": "API_CLIENT:VJUQLSRUUIMR",
        "updated_at": "2022-10-06T18:03:19.360Z", "updated_by": "41860744-eeed-4cac-bb76-9f500030d55c",
        "files": [{"id": "fc087326-7008-4729-9b19-26da4d23f1a2", "size": 5840, "storageKey":
        "upliv/upliv-dev/patients/28fd23be-7530-4257-8adb-927e07af9d5d/documents/48d31d67-eee0-471a-b334-7da0caf5141e",
        "contentType": null, "originalName": "walrus_uJGKbRm.jpeg"}], "id": "a8de3854-90b0-4167-9c9d-d051cfccfd8d",
        "source_id": null, "source_name": null}, "cdtName": "_document_summary"},
        {"id": "ff87933d-45b5-41c7-8635-69805446cac4", "patientId": "28fd23be-7530-4257-8adb-927e07af9d5d",
        "cdtId": "11235121-5cdf-4706-a266-a5a92ac3c099", "version": 131, "jsonBody":
        {"external_guid": null, "created_at": "2022-10-06T18:01:51.982Z", "source_type":
        null, "external_id": null, "type": "doc-type-others", "created_by_name": "API_CLIENT:VJUQLSRUUIMR",
        "created_by": "41860744-eeed-4cac-bb76-9f500030d55c", "updated_by_name": "Eddie
        Cohen", "updated_at": "2022-10-06T18:10:31.210Z", "updated_by": "c08af975-8afc-49cb-84ac-7189b727148c",
        "files": [{"id": "b1a0b3d6-e31b-45ff-96d9-7b5817f12d35", "size": 108243, "storageKey":
        "upliv/upliv-dev/patients/28fd23be-7530-4257-8adb-927e07af9d5d/documents/f5123bf9-8d73-4294-9145-ee3f274a58a2",
        "contentType": "application/pdf", "originalName": "ffcheatsheet_beginner_ZNH9Q8h
        (1).pdf"}], "id": "ff87933d-45b5-41c7-8635-69805446cac4", "source_id": null,
        "source_name": null}, "cdtName": "_document_summary"}, {"id": "86768ccc-6d3d-4ba1-bbd4-f4b09771ec11",
        "patientId": "28fd23be-7530-4257-8adb-927e07af9d5d", "cdtId": "11235121-5cdf-4706-a266-a5a92ac3c099",
        "version": 131, "jsonBody": {"external_guid": null, "created_at": "2022-10-06T18:00:59.342Z",
        "source_type": null, "external_id": null, "type": "doc-type-others", "created_by_name":
        "API_CLIENT:VJUQLSRUUIMR", "created_by": "41860744-eeed-4cac-bb76-9f500030d55c",
        "updated_by_name": "API_CLIENT:VJUQLSRUUIMR", "updated_at": "2022-10-06T18:00:59.342Z",
        "updated_by": "41860744-eeed-4cac-bb76-9f500030d55c", "files": null, "id":
        "86768ccc-6d3d-4ba1-bbd4-f4b09771ec11", "source_id": null, "source_name":
        null}, "cdtName": "_document_summary"}, {"id": "48f457d9-131c-4b35-b4fb-706f23afaac3",
        "patientId": "28fd23be-7530-4257-8adb-927e07af9d5d", "cdtId": "11235121-5cdf-4706-a266-a5a92ac3c099",
        "version": 131, "jsonBody": {"external_guid": null, "created_at": "2022-10-06T17:54:18.896Z",
        "source_type": null, "external_id": null, "type": "doc-type-others", "created_by_name":
        "API_CLIENT:VJUQLSRUUIMR", "created_by": "41860744-eeed-4cac-bb76-9f500030d55c",
        "updated_by_name": "API_CLIENT:VJUQLSRUUIMR", "updated_at": "2022-10-06T17:54:18.896Z",
        "updated_by": "41860744-eeed-4cac-bb76-9f500030d55c", "files": null, "id":
        "48f457d9-131c-4b35-b4fb-706f23afaac3", "source_id": null, "source_name":
        null}, "cdtName": "_document_summary"}, {"id": "38697c27-6e52-4d84-a831-cf3edda44478",
        "patientId": "28fd23be-7530-4257-8adb-927e07af9d5d", "cdtId": "11235121-5cdf-4706-a266-a5a92ac3c099",
        "version": 131, "jsonBody": {"external_guid": null, "created_at": "2022-10-06T17:52:25.539Z",
        "source_type": null, "external_id": null, "type": "doc-type-others", "created_by_name":
        "API_CLIENT:VJUQLSRUUIMR", "created_by": "41860744-eeed-4cac-bb76-9f500030d55c",
        "updated_by_name": "API_CLIENT:VJUQLSRUUIMR", "updated_at": "2022-10-06T17:52:25.539Z",
        "updated_by": "41860744-eeed-4cac-bb76-9f500030d55c", "files": null, "id":
        "38697c27-6e52-4d84-a831-cf3edda44478", "source_id": null, "source_name":
        null}, "cdtName": "_document_summary"}, {"id": "60c0e5b2-d281-46e6-bd07-69e96b4da848",
        "patientId": "28fd23be-7530-4257-8adb-927e07af9d5d", "cdtId": "11235121-5cdf-4706-a266-a5a92ac3c099",
        "version": 131, "jsonBody": {"external_guid": null, "created_at": "2022-10-06T17:52:05.950Z",
        "source_type": null, "external_id": null, "type": "doc-type-others", "created_by_name":
        "API_CLIENT:VJUQLSRUUIMR", "created_by": "41860744-eeed-4cac-bb76-9f500030d55c",
        "updated_by_name": "API_CLIENT:VJUQLSRUUIMR", "updated_at": "2022-10-06T17:52:05.950Z",
        "updated_by": "41860744-eeed-4cac-bb76-9f500030d55c", "files": null, "id":
        "60c0e5b2-d281-46e6-bd07-69e96b4da848", "source_id": null, "source_name":
        null}, "cdtName": "_document_summary"}, {"id": "f29407b9-4260-476d-99ae-cf8390c1812a",
        "patientId": "28fd23be-7530-4257-8adb-927e07af9d5d", "cdtId": "11235121-5cdf-4706-a266-a5a92ac3c099",
        "version": 131, "jsonBody": {"external_guid": null, "created_at": "2022-10-06T17:50:43.278Z",
        "source_type": null, "external_id": null, "type": "doc-type-others", "created_by_name":
        "API_CLIENT:VJUQLSRUUIMR", "created_by": "41860744-eeed-4cac-bb76-9f500030d55c",
        "updated_by_name": "API_CLIENT:VJUQLSRUUIMR", "updated_at": "2022-10-06T17:50:43.278Z",
        "updated_by": "41860744-eeed-4cac-bb76-9f500030d55c", "files": null, "id":
        "f29407b9-4260-476d-99ae-cf8390c1812a", "source_id": null, "source_name":
        null}, "cdtName": "_document_summary"}, {"id": "d5e7449b-3ce2-4f7a-b83b-c610980d3c91",
        "patientId": "28fd23be-7530-4257-8adb-927e07af9d5d", "cdtId": "11235121-5cdf-4706-a266-a5a92ac3c099",
        "version": 131, "jsonBody": {"external_guid": null, "created_at": "2022-10-06T17:49:38.501Z",
        "source_type": null, "external_id": null, "type": "doc-type-others", "created_by_name":
        "API_CLIENT:VJUQLSRUUIMR", "created_by": "41860744-eeed-4cac-bb76-9f500030d55c",
        "updated_by_name": "API_CLIENT:VJUQLSRUUIMR", "updated_at": "2022-10-06T17:49:38.501Z",
        "updated_by": "41860744-eeed-4cac-bb76-9f500030d55c", "files": null, "id":
        "d5e7449b-3ce2-4f7a-b83b-c610980d3c91", "source_id": null, "source_name":
        null}, "cdtName": "_document_summary"}, {"id": "33ed0af9-6804-4027-b481-71e98e75ba77",
        "patientId": "28fd23be-7530-4257-8adb-927e07af9d5d", "cdtId": "11235121-5cdf-4706-a266-a5a92ac3c099",
        "version": 131, "jsonBody": {"external_guid": null, "created_at": "2022-10-06T17:48:38.015Z",
        "source_type": null, "external_id": null, "type": "doc-type-others", "created_by_name":
        "API_CLIENT:VJUQLSRUUIMR", "created_by": "41860744-eeed-4cac-bb76-9f500030d55c",
        "updated_by_name": "API_CLIENT:VJUQLSRUUIMR", "updated_at": "2022-10-06T17:48:38.015Z",
        "updated_by": "41860744-eeed-4cac-bb76-9f500030d55c", "files": null, "id":
        "33ed0af9-6804-4027-b481-71e98e75ba77", "source_id": null, "source_name":
        null}, "cdtName": "_document_summary"}, {"id": "adad2935-6330-46e6-ae01-e144a295dc74",
        "patientId": "28fd23be-7530-4257-8adb-927e07af9d5d", "cdtId": "11235121-5cdf-4706-a266-a5a92ac3c099",
        "version": 131, "jsonBody": {"external_guid": null, "created_at": "2022-10-06T17:47:37.321Z",
        "source_type": null, "external_id": null, "type": "doc-type-others", "created_by_name":
        "API_CLIENT:VJUQLSRUUIMR", "created_by": "41860744-eeed-4cac-bb76-9f500030d55c",
        "updated_by_name": "API_CLIENT:VJUQLSRUUIMR", "updated_at": "2022-10-06T17:47:37.321Z",
        "updated_by": "41860744-eeed-4cac-bb76-9f500030d55c", "files": null, "id":
        "adad2935-6330-46e6-ae01-e144a295dc74", "source_id": null, "source_name":
        null}, "cdtName": "_document_summary"}, {"id": "fb88e277-9d6e-4ebc-80b2-0e6f07d6ea0f",
        "patientId": "28fd23be-7530-4257-8adb-927e07af9d5d", "cdtId": "11235121-5cdf-4706-a266-a5a92ac3c099",
        "version": 131, "jsonBody": {"external_guid": null, "created_at": "2022-10-06T17:45:36.791Z",
        "source_type": null, "external_id": null, "type": "doc-type-others", "created_by_name":
        "API_CLIENT:VJUQLSRUUIMR", "created_by": "41860744-eeed-4cac-bb76-9f500030d55c",
        "updated_by_name": "API_CLIENT:VJUQLSRUUIMR", "updated_at": "2022-10-06T17:45:36.791Z",
        "updated_by": "41860744-eeed-4cac-bb76-9f500030d55c", "files": null, "id":
        "fb88e277-9d6e-4ebc-80b2-0e6f07d6ea0f", "source_id": null, "source_name":
        null}, "cdtName": "_document_summary"}, {"id": "9bb1514d-5601-4871-9b88-f8995c8f4c0a",
        "patientId": "28fd23be-7530-4257-8adb-927e07af9d5d", "cdtId": "11235121-5cdf-4706-a266-a5a92ac3c099",
        "version": 131, "jsonBody": {"external_guid": null, "created_at": "2022-10-06T17:45:19.592Z",
        "source_type": null, "external_id": null, "type": "doc-type-others", "created_by_name":
        "API_CLIENT:VJUQLSRUUIMR", "created_by": "41860744-eeed-4cac-bb76-9f500030d55c",
        "updated_by_name": "API_CLIENT:VJUQLSRUUIMR", "updated_at": "2022-10-06T17:45:19.592Z",
        "updated_by": "41860744-eeed-4cac-bb76-9f500030d55c", "files": null, "id":
        "9bb1514d-5601-4871-9b88-f8995c8f4c0a", "source_id": null, "source_name":
        null}, "cdtName": "_document_summary"}], "pageable": {"sort": {"sorted": false,
        "unsorted": true, "empty": true}, "pageNumber": 0, "pageSize": 20, "offset":
        0, "unpaged": false, "paged": true}, "last": false, "totalElements": 27, "totalPages":
        2, "sort": {"sorted": false, "unsorted": true, "empty": true}, "number": 0,
        "first": true, "numberOfElements": 20, "size": 20, "empty": false}}'
    headers:
      Access-Control-Allow-Headers:
      - authorization, content-type, xsrf-token, security-role
      Access-Control-Allow-Methods:
      - GET, POST, PUT, DELETE, PATCH, OPTIONS
      Access-Control-Allow-Origin:
      - '*'
      Access-Control-Expose-Headers:
      - xsrf-token
      Access-Control-Max-Age:
      - '3600'
      Cache-Control:
      - no-cache, no-store, max-age=0, must-revalidate
      Connection:
      - keep-alive
      Content-Type:
      - application/json
      Date:
      - Thu, 20 Oct 2022 20:50:53 GMT
      Expires:
      - '0'
      Pragma:
      - no-cache
      Set-Cookie:
      - AWSALB=B8Hrxpn43yJPi9pb6Zcp4D3xPoqfmV5teUV8rfs3zMe0t2raYkoh612uo3kVnjK1PYQLm8PsYqty+U5f5fencaQX81REgPY4w/RC7loW5ajp/sgbm04nL0WXNRI+;
        Expires=Thu, 27 Oct 2022 20:50:53 GMT; Path=/
      - AWSALBCORS=B8Hrxpn43yJPi9pb6Zcp4D3xPoqfmV5teUV8rfs3zMe0t2raYkoh612uo3kVnjK1PYQLm8PsYqty+U5f5fencaQX81REgPY4w/RC7loW5ajp/sgbm04nL0WXNRI+;
        Expires=Thu, 27 Oct 2022 20:50:53 GMT; Path=/; SameSite=None; Secure
      Transfer-Encoding:
      - chunked
      X-Content-Type-Options:
      - nosniff
      X-XSS-Protection:
      - 1; mode=block
    status:
      code: 200
      message: ''
version: 1
